{"items":[{"jaar":2022,"week":36,"startdatum":"2022-09-04T22:00:00Z","einddatum":"2022-09-10T22:00:00Z","dagen":[{"datum":"2022-09-04T22:00:00Z","rooster":[{"id_rooster":"roos:1634291:99072620","datum":"2022-09-04T22:00:00Z","studentnummer":"99072620","onderwerp":"Softskills","subonderwerp":"","tijd_vanaf":"9:00","tijd_tm":"10:30","locatie":"RB3.A2.04-1","locatie_x":"","locatie_y":"","docenten":[{"naam":"R. van Pelt"}],"notitie":"","locatie_adres":"","stoel":"","soort_rooster":"","links":[],"actueel":"N"},{"id_rooster":"roos:1598843:99072620","datum":"2022-09-04T22:00:00Z","studentnummer":"99072620","onderwerp":"Projecten","subonderwerp":"","tijd_vanaf":"10:45","tijd_tm":"12:15","locatie":"RB3.A2.04-2","locatie_x":"","locatie_y":"","docenten":[{"naam":"J. Corbijn"}],"notitie":"","locatie_adres":"","stoel":"","soort_rooster":"","links":[],"actueel":"N"},{"id_rooster":"roos:1634330:99072620","datum":"2022-09-04T22:00:00Z","studentnummer":"99072620","onderwerp":"Projecten","subonderwerp":"","tijd_vanaf":"12:45","tijd_tm":"14:15","locatie":"RB3.A2.04-2","locatie_x":"","locatie_y":"","docenten":[{"naam":"R. van Pelt"}],"notitie":"","locatie_adres":"","stoel":"","soort_rooster":"","links":[],"actueel":"N"},{"id_rooster":"roos:1633928:99072620","datum":"2022-09-04T22:00:00Z","studentnummer":"99072620","onderwerp":"Projecten","subonderwerp":"","tijd_vanaf":"14:15","tijd_tm":"16:00","locatie":"RB3.A2.04-2","locatie_x":"","locatie_y":"","docenten":[{"naam":"R. van Pelt"}],"notitie":"","locatie_adres":"","stoel":"","soort_rooster":"","links":[],"actueel":"N"}]},{"datum":"2022-09-05T22:00:00Z","rooster":[]},{"datum":"2022-09-06T22:00:00Z","rooster":[{"id_rooster":"roos:1645989:99072620","datum":"2022-09-06T22:00:00Z","studentnummer":"99072620","onderwerp":"Engels","subonderwerp":"","tijd_vanaf":"9:00","tijd_tm":"10:30","locatie":"RB3.A2.12","locatie_x":"","locatie_y":"","docenten":[{"naam":"A.J. Risk"}],"notitie":"","locatie_adres":"","stoel":"","soort_rooster":"","links":[],"actueel":"N"},{"id_rooster":"roos:1645667:99072620","datum":"2022-09-06T22:00:00Z","studentnummer":"99072620","onderwerp":"Nederlands","subonderwerp":"","tijd_vanaf":"10:45","tijd_tm":"12:15","locatie":"RB3.A2.03","locatie_x":"","locatie_y":"","docenten":[{"naam":"B.D.P. van der Sloot"}],"notitie":"","locatie_adres":"","stoel":"","soort_rooster":"","links":[],"actueel":"N"},{"id_rooster":"roos:1650900:99072620","datum":"2022-09-06T22:00:00Z","studentnummer":"99072620","onderwerp":"Rekenen","subonderwerp":"","tijd_vanaf":"12:45","tijd_tm":"14:15","locatie":"RB3.A2.03","locatie_x":"","locatie_y":"","docenten":[{"naam":"R.L. Verbon"}],"notitie":"","locatie_adres":"","stoel":"","soort_rooster":"","links":[],"actueel":"N"}]},{"datum":"2022-09-07T22:00:00Z","rooster":[{"id_rooster":"roos:1657281:99072620","datum":"2022-09-07T22:00:00Z","studentnummer":"99072620","onderwerp":"Projecten","subonderwerp":"","tijd_vanaf":"9:00","tijd_tm":"10:30","locatie":"RB3.A2.04-1","locatie_x":"","locatie_y":"","docenten":[{"naam":"J. Corbijn"}],"notitie":"","locatie_adres":"","stoel":"","soort_rooster":"","links":[],"actueel":"N"},{"id_rooster":"roos:1657228:99072620","datum":"2022-09-07T22:00:00Z","studentnummer":"99072620","onderwerp":"Projecten","subonderwerp":"","tijd_vanaf":"10:45","tijd_tm":"12:15","locatie":"RB3.A2.04-2","locatie_x":"","locatie_y":"","docenten":[{"naam":"J. Corbijn"}],"notitie":"","locatie_adres":"","stoel":"","soort_rooster":"","links":[],"actueel":"N"},{"id_rooster":"roos:1657237:99072620","datum":"2022-09-07T22:00:00Z","studentnummer":"99072620","onderwerp":"Projecten","subonderwerp":"","tijd_vanaf":"12:45","tijd_tm":"14:15","locatie":"RB3.A2.04-1","locatie_x":"","locatie_y":"","docenten":[{"naam":"J. Corbijn"}],"notitie":"","locatie_adres":"","stoel":"","soort_rooster":"","links":[],"actueel":"N"},{"id_rooster":"roos:1663599:99072620","datum":"2022-09-07T22:00:00Z","studentnummer":"99072620","onderwerp":"Projecten","subonderwerp":"","tijd_vanaf":"14:15","tijd_tm":"16:00","locatie":"RB3.A2.04-1","locatie_x":"","locatie_y":"","docenten":[{"naam":"J. Corbijn"}],"notitie":"","locatie_adres":"","stoel":"","soort_rooster":"","links":[],"actueel":"N"}]},{"datum":"2022-09-08T22:00:00Z","rooster":[{"id_rooster":"roos:1663555:99072620","datum":"2022-09-08T22:00:00Z","studentnummer":"99072620","onderwerp":"Softskills","subonderwerp":"","tijd_vanaf":"9:00","tijd_tm":"10:30","locatie":"RB3.A2.11","locatie_x":"","locatie_y":"","docenten":[{"naam":"R. van Pelt"}],"notitie":"","locatie_adres":"","stoel":"","soort_rooster":"","links":[],"actueel":"N"},{"id_rooster":"roos:1663627:99072620","datum":"2022-09-08T22:00:00Z","studentnummer":"99072620","onderwerp":"Projecten","subonderwerp":"","tijd_vanaf":"10:45","tijd_tm":"12:15","locatie":"RB3.A2.05","locatie_x":"","locatie_y":"","docenten":[{"naam":"A. de Jong"}],"notitie":"","locatie_adres":"","stoel":"","soort_rooster":"","links":[],"actueel":"N"},{"id_rooster":"roos:1663628:99072620","datum":"2022-09-08T22:00:00Z","studentnummer":"99072620","onderwerp":"SLB / LB","subonderwerp":"","tijd_vanaf":"12:45","tijd_tm":"13:45","locatie":"RB3.A2.04-2","locatie_x":"","locatie_y":"","docenten":[{"naam":"J. Corbijn"}],"notitie":"","locatie_adres":"","stoel":"","soort_rooster":"","links":[],"actueel":"N"}]},{"datum":"2022-09-09T22:00:00Z","rooster":[]},{"datum":"2022-09-10T22:00:00Z","rooster":[]}]},{"jaar":2022,"week":37,"startdatum":"2022-09-11T22:00:00Z","einddatum":"2022-09-17T22:00:00Z","dagen":[{"datum":"2022-09-11T22:00:00Z","rooster":[{"id_rooster":"roos:1695498:99072620","datum":"2022-09-11T22:00:00Z","studentnummer":"99072620","onderwerp":"Projecten","subonderwerp":"","tijd_vanaf":"9:00","tijd_tm":"10:30","locatie":"RB3.A2.04-1","locatie_x":"","locatie_y":"","docenten":[{"naam":"J. Corbijn"}],"notitie":"","locatie_adres":"","stoel":"","soort_rooster":"","links":[],"actueel":"N"},{"id_rooster":"roos:1695725:99072620","datum":"2022-09-11T22:00:00Z","studentnummer":"99072620","onderwerp":"Projecten","subonderwerp":"","tijd_vanaf":"10:45","tijd_tm":"12:15","locatie":"RB3.A2.04-2","locatie_x":"","locatie_y":"","docenten":[{"naam":"J. Corbijn"}],"notitie":"","locatie_adres":"","stoel":"","soort_rooster":"","links":[],"actueel":"N"},{"id_rooster":"roos:1695541:99072620","datum":"2022-09-11T22:00:00Z","studentnummer":"99072620","onderwerp":"Projecten","subonderwerp":"","tijd_vanaf":"12:45","tijd_tm":"14:15","locatie":"RB3.A2.04-2","locatie_x":"","locatie_y":"","docenten":[{"naam":"J. Corbijn"}],"notitie":"","locatie_adres":"","stoel":"","soort_rooster":"","links":[],"actueel":"N"},{"id_rooster":"roos:1695064:99072620","datum":"2022-09-11T22:00:00Z","studentnummer":"99072620","onderwerp":"Projecten","subonderwerp":"","tijd_vanaf":"14:15","tijd_tm":"16:00","locatie":"RB3.A2.04-2","locatie_x":"","locatie_y":"","docenten":[{"naam":"J. Corbijn"}],"notitie":"","locatie_adres":"","stoel":"","soort_rooster":"","links":[],"actueel":"N"}]},{"datum":"2022-09-12T22:00:00Z","rooster":[]},{"datum":"2022-09-13T22:00:00Z","rooster":[{"id_rooster":"roos:1695557:99072620","datum":"2022-09-13T22:00:00Z","studentnummer":"99072620","onderwerp":"Engels","subonderwerp":"","tijd_vanaf":"9:00","tijd_tm":"10:30","locatie":"RB3.A2.12","locatie_x":"","locatie_y":"","docenten":[{"naam":"A.J. Risk"}],"notitie":"","locatie_adres":"","stoel":"","soort_rooster":"","links":[],"actueel":"N"},{"id_rooster":"roos:1695062:99072620","datum":"2022-09-13T22:00:00Z","studentnummer":"99072620","onderwerp":"Nederlands","subonderwerp":"","tijd_vanaf":"10:45","tijd_tm":"12:15","locatie":"RB3.A2.03","locatie_x":"","locatie_y":"","docenten":[{"naam":"B.D.P. van der Sloot"}],"notitie":"","locatie_adres":"","stoel":"","soort_rooster":"","links":[],"actueel":"N"},{"id_rooster":"roos:1695620:99072620","datum":"2022-09-13T22:00:00Z","studentnummer":"99072620","onderwerp":"Rekenen","subonderwerp":"","tijd_vanaf":"12:45","tijd_tm":"14:15","locatie":"RB3.A2.03","locatie_x":"","locatie_y":"","docenten":[{"naam":"R.L. Verbon"}],"notitie":"","locatie_adres":"","stoel":"","soort_rooster":"","links":[],"actueel":"N"}]},{"datum":"2022-09-14T22:00:00Z","rooster":[{"id_rooster":"roos:1695682:99072620","datum":"2022-09-14T22:00:00Z","studentnummer":"99072620","onderwerp":"Projecten","subonderwerp":"","tijd_vanaf":"9:00","tijd_tm":"10:30","locatie":"RB3.A2.04-1","locatie_x":"","locatie_y":"","docenten":[{"naam":"J. Corbijn"}],"notitie":"","locatie_adres":"","stoel":"","soort_rooster":"","links":[],"actueel":"N"},{"id_rooster":"roos:1695582:99072620","datum":"2022-09-14T22:00:00Z","studentnummer":"99072620","onderwerp":"Projecten","subonderwerp":"","tijd_vanaf":"10:45","tijd_tm":"12:15","locatie":"RB3.A2.04-2","locatie_x":"","locatie_y":"","docenten":[{"naam":"J. Corbijn"}],"notitie":"","locatie_adres":"","stoel":"","soort_rooster":"","links":[],"actueel":"N"},{"id_rooster":"roos:1695602:99072620","datum":"2022-09-14T22:00:00Z","studentnummer":"99072620","onderwerp":"Projecten","subonderwerp":"","tijd_vanaf":"12:45","tijd_tm":"14:15","locatie":"RB3.A2.04-1","locatie_x":"","locatie_y":"","docenten":[{"naam":"J. Corbijn"}],"notitie":"","locatie_adres":"","stoel":"","soort_rooster":"","links":[],"actueel":"N"},{"id_rooster":"roos:1695643:99072620","datum":"2022-09-14T22:00:00Z","studentnummer":"99072620","onderwerp":"Projecten","subonderwerp":"","tijd_vanaf":"14:15","tijd_tm":"16:00","locatie":"RB3.A2.04-1","locatie_x":"","locatie_y":"","docenten":[{"naam":"J. Corbijn"}],"notitie":"","locatie_adres":"","stoel":"","soort_rooster":"","links":[],"actueel":"N"}]},{"datum":"2022-09-15T22:00:00Z","rooster":[{"id_rooster":"roos:1695480:99072620","datum":"2022-09-15T22:00:00Z","studentnummer":"99072620","onderwerp":"Softskills","subonderwerp":"","tijd_vanaf":"9:00","tijd_tm":"10:30","locatie":"RB3.A2.11","locatie_x":"","locatie_y":"","docenten":[{"naam":"R. van Pelt"}],"notitie":"","locatie_adres":"","stoel":"","soort_rooster":"","links":[],"actueel":"N"},{"id_rooster":"roos:1695703:99072620","datum":"2022-09-15T22:00:00Z","studentnummer":"99072620","onderwerp":"Projecten","subonderwerp":"","tijd_vanaf":"10:45","tijd_tm":"12:15","locatie":"RB3.A2.05","locatie_x":"","locatie_y":"","docenten":[{"naam":"A. de Jong"}],"notitie":"","locatie_adres":"","stoel":"","soort_rooster":"","links":[],"actueel":"N"},{"id_rooster":"roos:1695705:99072620","datum":"2022-09-15T22:00:00Z","studentnummer":"99072620","onderwerp":"SLB / LB","subonderwerp":"","tijd_vanaf":"12:45","tijd_tm":"13:45","locatie":"RB3.A2.04-2","locatie_x":"","locatie_y":"","docenten":[{"naam":"J. Corbijn"}],"notitie":"","locatie_adres":"","stoel":"","soort_rooster":"","links":[],"actueel":"N"}]},{"datum":"2022-09-16T22:00:00Z","rooster":[]},{"datum":"2022-09-17T22:00:00Z","rooster":[]}]},{"jaar":2022,"week":38,"startdatum":"2022-09-18T22:00:00Z","einddatum":"2022-09-24T22:00:00Z","dagen":[{"datum":"2022-09-18T22:00:00Z","rooster":[]},{"datum":"2022-09-19T22:00:00Z","rooster":[]},{"datum":"2022-09-20T22:00:00Z","rooster":[]},{"datum":"2022-09-21T22:00:00Z","rooster":[]},{"datum":"2022-09-22T22:00:00Z","rooster":[]},{"datum":"2022-09-23T22:00:00Z","rooster":[]},{"datum":"2022-09-24T22:00:00Z","rooster":[]}]},{"jaar":2022,"week":39,"startdatum":"2022-09-25T22:00:00Z","einddatum":"2022-10-01T22:00:00Z","dagen":[{"datum":"2022-09-25T22:00:00Z","rooster":[]},{"datum":"2022-09-26T22:00:00Z","rooster":[]},{"datum":"2022-09-27T22:00:00Z","rooster":[]},{"datum":"2022-09-28T22:00:00Z","rooster":[]},{"datum":"2022-09-29T22:00:00Z","rooster":[]},{"datum":"2022-09-30T22:00:00Z","rooster":[]},{"datum":"2022-10-01T22:00:00Z","rooster":[]}]},{"jaar":2022,"week":40,"startdatum":"2022-10-02T22:00:00Z","einddatum":"2022-10-08T22:00:00Z","dagen":[{"datum":"2022-10-02T22:00:00Z","rooster":[]},{"datum":"2022-10-03T22:00:00Z","rooster":[]},{"datum":"2022-10-04T22:00:00Z","rooster":[]},{"datum":"2022-10-05T22:00:00Z","rooster":[]},{"datum":"2022-10-06T22:00:00Z","rooster":[]},{"datum":"2022-10-07T22:00:00Z","rooster":[]},{"datum":"2022-10-08T22:00:00Z","rooster":[]}]}],"hasMore":true,"limit":5,"offset":0,"count":6}
