{"items":[{"jaar":2022,"week":37,"startdatum":"2022-09-11T22:00:00Z","einddatum":"2022-09-17T22:00:00Z","dagen":[{"datum":"2022-09-11T22:00:00Z","rooster":[{"id_rooster":"roos:1695655:99072781","datum":"2022-09-11T22:00:00Z","studentnummer":"99072781","onderwerp":"Project Linux","subonderwerp":"","tijd_vanaf":"9:00","tijd_tm":"10:30","locatie":"RB3.A2.24-1","locatie_x":"","locatie_y":"","docenten":[{"naam":"L. Teunen"}],"notitie":"","locatie_adres":"","stoel":"","soort_rooster":"","links":[],"actueel":"J"},{"id_rooster":"roos:1695512:99072781","datum":"2022-09-11T22:00:00Z","studentnummer":"99072781","onderwerp":"Project Windows","subonderwerp":"","tijd_vanaf":"10:45","tijd_tm":"12:15","locatie":"RB3.A2.24-1","locatie_x":"","locatie_y":"","docenten":[{"naam":"A. Rutten"}],"notitie":"","locatie_adres":"","stoel":"","soort_rooster":"","links":[],"actueel":"J"},{"id_rooster":"roos:1695718:99072781","datum":"2022-09-11T22:00:00Z","studentnummer":"99072781","onderwerp":"Studieloopbaanbegeleiding","subonderwerp":"","tijd_vanaf":"12:45","tijd_tm":"14:15","locatie":"RB3.A2.25","locatie_x":"","locatie_y":"","docenten":[{"naam":"L. Teunen"}],"notitie":"","locatie_adres":"","stoel":"","soort_rooster":"","links":[],"actueel":"J"}]},{"datum":"2022-09-12T22:00:00Z","rooster":[{"id_rooster":"roos:1695263:99072781","datum":"2022-09-12T22:00:00Z","studentnummer":"99072781","onderwerp":"Project Linux","subonderwerp":"","tijd_vanaf":"9:00","tijd_tm":"10:30","locatie":"RB3.A2.03","locatie_x":"","locatie_y":"","docenten":[{"naam":"L. Teunen"}],"notitie":"","locatie_adres":"","stoel":"","soort_rooster":"","links":[],"actueel":"N"},{"id_rooster":"roos:1695493:99072781","datum":"2022-09-12T22:00:00Z","studentnummer":"99072781","onderwerp":"Project Windows","subonderwerp":"","tijd_vanaf":"10:45","tijd_tm":"12:15","locatie":"RB3.A2.20","locatie_x":"","locatie_y":"","docenten":[{"naam":"A. Rutten"}],"notitie":"","locatie_adres":"","stoel":"","soort_rooster":"","links":[],"actueel":"N"},{"id_rooster":"roos:1695613:99072781","datum":"2022-09-12T22:00:00Z","studentnummer":"99072781","onderwerp":"Digitale Vaardigheden (K0023)","subonderwerp":"","tijd_vanaf":"12:45","tijd_tm":"14:15","locatie":"RB3.A2.24-1","locatie_x":"","locatie_y":"","docenten":[{"naam":"M.C. Touw"}],"notitie":"","locatie_adres":"","stoel":"","soort_rooster":"","links":[],"actueel":"N"},{"id_rooster":"roos:1695715:99072781","datum":"2022-09-12T22:00:00Z","studentnummer":"99072781","onderwerp":"Html/ Css / Php","subonderwerp":"","tijd_vanaf":"14:15","tijd_tm":"16:00","locatie":"RB3.A2.28","locatie_x":"","locatie_y":"","docenten":[{"naam":"M.C. Touw"},{"naam":"R.B. Nijssen"}],"notitie":"","locatie_adres":"","stoel":"","soort_rooster":"","links":[],"actueel":"N"},{"id_rooster":"roos:1695181:99072781","datum":"2022-09-12T22:00:00Z","studentnummer":"99072781","onderwerp":"reservering Sub-groep","subonderwerp":"","tijd_vanaf":"16:00","tijd_tm":"17:00","locatie":"","locatie_x":"","locatie_y":"","docenten":[{"naam":"R. Bezemer"}],"notitie":"","locatie_adres":"","stoel":"","soort_rooster":"","links":[],"actueel":"N"}]},{"datum":"2022-09-13T22:00:00Z","rooster":[{"id_rooster":"roos:1695061:99072781","datum":"2022-09-13T22:00:00Z","studentnummer":"99072781","onderwerp":"Datacom","subonderwerp":"","tijd_vanaf":"9:00","tijd_tm":"12:15","locatie":"RB3.A2.25","locatie_x":"","locatie_y":"","docenten":[{"naam":"G. van der Staal"}],"notitie":"","locatie_adres":"","stoel":"","soort_rooster":"","links":[],"actueel":"N"},{"id_rooster":"roos:1694947:99072781","datum":"2022-09-13T22:00:00Z","studentnummer":"99072781","onderwerp":"We-pair","subonderwerp":"","tijd_vanaf":"12:45","tijd_tm":"16:00","locatie":"RB3.0.34","locatie_x":"","locatie_y":"","docenten":[{"naam":"R. Bezemer"}],"notitie":"","locatie_adres":"","stoel":"","soort_rooster":"","links":[],"actueel":"N"}]},{"datum":"2022-09-14T22:00:00Z","rooster":[]},{"datum":"2022-09-15T22:00:00Z","rooster":[{"id_rooster":"roos:1695308:99072781","datum":"2022-09-15T22:00:00Z","studentnummer":"99072781","onderwerp":"Nederlands","subonderwerp":"","tijd_vanaf":"9:00","tijd_tm":"10:30","locatie":"RB3.A2.28","locatie_x":"","locatie_y":"","docenten":[{"naam":"B.D.P. van der Sloot"}],"notitie":"","locatie_adres":"","stoel":"","soort_rooster":"","links":[],"actueel":"N"},{"id_rooster":"roos:1695653:99072781","datum":"2022-09-15T22:00:00Z","studentnummer":"99072781","onderwerp":"Digitale Vaardigheden (K0023)","subonderwerp":"","tijd_vanaf":"12:45","tijd_tm":"14:15","locatie":"RB3.A2.28","locatie_x":"","locatie_y":"","docenten":[{"naam":"M.C. Touw"}],"notitie":"","locatie_adres":"","stoel":"","soort_rooster":"","links":[],"actueel":"N"},{"id_rooster":"roos:1695721:99072781","datum":"2022-09-15T22:00:00Z","studentnummer":"99072781","onderwerp":"Engels","subonderwerp":"","tijd_vanaf":"14:15","tijd_tm":"16:00","locatie":"LPP.B1.11H","locatie_x":"","locatie_y":"","docenten":[{"naam":"A.J. Risk"}],"notitie":"","locatie_adres":"","stoel":"","soort_rooster":"","links":[],"actueel":"N"}]},{"datum":"2022-09-16T22:00:00Z","rooster":[]},{"datum":"2022-09-17T22:00:00Z","rooster":[]}]},{"jaar":2022,"week":38,"startdatum":"2022-09-18T22:00:00Z","einddatum":"2022-09-24T22:00:00Z","dagen":[{"datum":"2022-09-18T22:00:00Z","rooster":[]},{"datum":"2022-09-19T22:00:00Z","rooster":[]},{"datum":"2022-09-20T22:00:00Z","rooster":[]},{"datum":"2022-09-21T22:00:00Z","rooster":[]},{"datum":"2022-09-22T22:00:00Z","rooster":[]},{"datum":"2022-09-23T22:00:00Z","rooster":[]},{"datum":"2022-09-24T22:00:00Z","rooster":[]}]},{"jaar":2022,"week":39,"startdatum":"2022-09-25T22:00:00Z","einddatum":"2022-10-01T22:00:00Z","dagen":[{"datum":"2022-09-25T22:00:00Z","rooster":[]},{"datum":"2022-09-26T22:00:00Z","rooster":[]},{"datum":"2022-09-27T22:00:00Z","rooster":[]},{"datum":"2022-09-28T22:00:00Z","rooster":[]},{"datum":"2022-09-29T22:00:00Z","rooster":[]},{"datum":"2022-09-30T22:00:00Z","rooster":[]},{"datum":"2022-10-01T22:00:00Z","rooster":[]}]},{"jaar":2022,"week":40,"startdatum":"2022-10-02T22:00:00Z","einddatum":"2022-10-08T22:00:00Z","dagen":[{"datum":"2022-10-02T22:00:00Z","rooster":[]},{"datum":"2022-10-03T22:00:00Z","rooster":[]},{"datum":"2022-10-04T22:00:00Z","rooster":[]},{"datum":"2022-10-05T22:00:00Z","rooster":[]},{"datum":"2022-10-06T22:00:00Z","rooster":[]},{"datum":"2022-10-07T22:00:00Z","rooster":[]},{"datum":"2022-10-08T22:00:00Z","rooster":[]}]},{"jaar":2022,"week":41,"startdatum":"2022-10-09T22:00:00Z","einddatum":"2022-10-15T22:00:00Z","dagen":[{"datum":"2022-10-09T22:00:00Z","rooster":[]},{"datum":"2022-10-10T22:00:00Z","rooster":[]},{"datum":"2022-10-11T22:00:00Z","rooster":[]},{"datum":"2022-10-12T22:00:00Z","rooster":[]},{"datum":"2022-10-13T22:00:00Z","rooster":[]},{"datum":"2022-10-14T22:00:00Z","rooster":[]},{"datum":"2022-10-15T22:00:00Z","rooster":[]}]}],"hasMore":true,"limit":5,"offset":0,"count":6}
