{"items":[{"jaar":2022,"week":37,"startdatum":"2022-09-11T22:00:00Z","einddatum":"2022-09-17T22:00:00Z","dagen":[{"datum":"2022-09-11T22:00:00Z","rooster":[{"id_rooster":"roos:1695497:99071376","datum":"2022-09-11T22:00:00Z","studentnummer":"99071376","onderwerp":"Engels","subonderwerp":"","tijd_vanaf":"14:15","tijd_tm":"16:00","locatie":"LPP.B1.11H","locatie_x":"","locatie_y":"","docenten":[{"naam":"R. Pogosian"}],"notitie":"","locatie_adres":"","stoel":"","soort_rooster":"","links":[],"actueel":"J"}]},{"datum":"2022-09-12T22:00:00Z","rooster":[{"id_rooster":"roos:1695531:99071376","datum":"2022-09-12T22:00:00Z","studentnummer":"99071376","onderwerp":"Digitale Vaardigheden (K0023)","subonderwerp":"","tijd_vanaf":"12:45","tijd_tm":"14:15","locatie":"RB3.A2.20","locatie_x":"","locatie_y":"","docenten":[{"naam":"J. van Alphen"}],"notitie":"","locatie_adres":"","stoel":"","soort_rooster":"","links":[],"actueel":"N"},{"id_rooster":"roos:1695617:99071376","datum":"2022-09-12T22:00:00Z","studentnummer":"99071376","onderwerp":"Nederlands","subonderwerp":"","tijd_vanaf":"14:15","tijd_tm":"16:00","locatie":"RB3.A2.20","locatie_x":"","locatie_y":"","docenten":[{"naam":"B.D.P. van der Sloot"}],"notitie":"","locatie_adres":"","stoel":"","soort_rooster":"","links":[],"actueel":"N"},{"id_rooster":"roos:1695181:99071376","datum":"2022-09-12T22:00:00Z","studentnummer":"99071376","onderwerp":"reservering Sub-groep","subonderwerp":"","tijd_vanaf":"16:00","tijd_tm":"17:00","locatie":"","locatie_x":"","locatie_y":"","docenten":[{"naam":"R. Bezemer"}],"notitie":"","locatie_adres":"","stoel":"","soort_rooster":"","links":[],"actueel":"N"}]},{"datum":"2022-09-13T22:00:00Z","rooster":[{"id_rooster":"roos:1695495:99071376","datum":"2022-09-13T22:00:00Z","studentnummer":"99071376","onderwerp":"Studieloopbaanbegeleiding","subonderwerp":"","tijd_vanaf":"9:00","tijd_tm":"10:30","locatie":"RB3.A1.03","locatie_x":"","locatie_y":"","docenten":[{"naam":"J. van Alphen"}],"notitie":"","locatie_adres":"","stoel":"","soort_rooster":"","links":[],"actueel":"N"},{"id_rooster":"roos:1695055:99071376","datum":"2022-09-13T22:00:00Z","studentnummer":"99071376","onderwerp":"Digitale Vaardigheden (K0023)","subonderwerp":"","tijd_vanaf":"10:45","tijd_tm":"12:15","locatie":"RB3.A1.03","locatie_x":"","locatie_y":"","docenten":[{"naam":"J. van Alphen"}],"notitie":"","locatie_adres":"","stoel":"","soort_rooster":"","links":[],"actueel":"N"},{"id_rooster":"roos:1695572:99071376","datum":"2022-09-13T22:00:00Z","studentnummer":"99071376","onderwerp":"Freestyle","subonderwerp":"","tijd_vanaf":"12:45","tijd_tm":"16:00","locatie":"RB3.A2.28","locatie_x":"","locatie_y":"","docenten":[{"naam":"S. Kusters"}],"notitie":"","locatie_adres":"","stoel":"","soort_rooster":"","links":[],"actueel":"N"}]},{"datum":"2022-09-14T22:00:00Z","rooster":[{"id_rooster":"roos:1695148:99071376","datum":"2022-09-14T22:00:00Z","studentnummer":"99071376","onderwerp":"Beheer","subonderwerp":"","tijd_vanaf":"9:00","tijd_tm":"12:15","locatie":"RB3.A2.24-1","locatie_x":"","locatie_y":"","docenten":[{"naam":"S. Kusters"}],"notitie":"","locatie_adres":"","stoel":"","soort_rooster":"","links":[],"actueel":"N"},{"id_rooster":"roos:1695612:99071376","datum":"2022-09-14T22:00:00Z","studentnummer":"99071376","onderwerp":"We-pair","subonderwerp":"","tijd_vanaf":"12:45","tijd_tm":"16:00","locatie":"RB3.0.34","locatie_x":"","locatie_y":"","docenten":[{"naam":"S. Kusters"}],"notitie":"","locatie_adres":"","stoel":"","soort_rooster":"","links":[],"actueel":"N"},{"id_rooster":"roos:1695303:99071376","datum":"2022-09-14T22:00:00Z","studentnummer":"99071376","onderwerp":"reservering Sub-groep","subonderwerp":"","tijd_vanaf":"16:00","tijd_tm":"17:00","locatie":"","locatie_x":"","locatie_y":"","docenten":[{"naam":"R. Bezemer"}],"notitie":"","locatie_adres":"","stoel":"","soort_rooster":"","links":[],"actueel":"N"}]},{"datum":"2022-09-15T22:00:00Z","rooster":[{"id_rooster":"roos:1695395:99071376","datum":"2022-09-15T22:00:00Z","studentnummer":"99071376","onderwerp":"Smart","subonderwerp":"","tijd_vanaf":"9:00","tijd_tm":"12:15","locatie":"RB3.0.34","locatie_x":"","locatie_y":"","docenten":[{"naam":"R. Bezemer"}],"notitie":"","locatie_adres":"","stoel":"","soort_rooster":"","links":[],"actueel":"N"},{"id_rooster":"roos:1695720:99071376","datum":"2022-09-15T22:00:00Z","studentnummer":"99071376","onderwerp":"Datacom","subonderwerp":"","tijd_vanaf":"12:45","tijd_tm":"16:00","locatie":"RB3.A2.25","locatie_x":"","locatie_y":"","docenten":[{"naam":"G. van der Staal"}],"notitie":"","locatie_adres":"","stoel":"","soort_rooster":"","links":[],"actueel":"N"}]},{"datum":"2022-09-16T22:00:00Z","rooster":[]},{"datum":"2022-09-17T22:00:00Z","rooster":[]}]},{"jaar":2022,"week":38,"startdatum":"2022-09-18T22:00:00Z","einddatum":"2022-09-24T22:00:00Z","dagen":[{"datum":"2022-09-18T22:00:00Z","rooster":[]},{"datum":"2022-09-19T22:00:00Z","rooster":[]},{"datum":"2022-09-20T22:00:00Z","rooster":[]},{"datum":"2022-09-21T22:00:00Z","rooster":[]},{"datum":"2022-09-22T22:00:00Z","rooster":[]},{"datum":"2022-09-23T22:00:00Z","rooster":[]},{"datum":"2022-09-24T22:00:00Z","rooster":[]}]},{"jaar":2022,"week":39,"startdatum":"2022-09-25T22:00:00Z","einddatum":"2022-10-01T22:00:00Z","dagen":[{"datum":"2022-09-25T22:00:00Z","rooster":[]},{"datum":"2022-09-26T22:00:00Z","rooster":[]},{"datum":"2022-09-27T22:00:00Z","rooster":[]},{"datum":"2022-09-28T22:00:00Z","rooster":[]},{"datum":"2022-09-29T22:00:00Z","rooster":[]},{"datum":"2022-09-30T22:00:00Z","rooster":[]},{"datum":"2022-10-01T22:00:00Z","rooster":[]}]},{"jaar":2022,"week":40,"startdatum":"2022-10-02T22:00:00Z","einddatum":"2022-10-08T22:00:00Z","dagen":[{"datum":"2022-10-02T22:00:00Z","rooster":[]},{"datum":"2022-10-03T22:00:00Z","rooster":[]},{"datum":"2022-10-04T22:00:00Z","rooster":[]},{"datum":"2022-10-05T22:00:00Z","rooster":[]},{"datum":"2022-10-06T22:00:00Z","rooster":[]},{"datum":"2022-10-07T22:00:00Z","rooster":[]},{"datum":"2022-10-08T22:00:00Z","rooster":[]}]},{"jaar":2022,"week":41,"startdatum":"2022-10-09T22:00:00Z","einddatum":"2022-10-15T22:00:00Z","dagen":[{"datum":"2022-10-09T22:00:00Z","rooster":[]},{"datum":"2022-10-10T22:00:00Z","rooster":[]},{"datum":"2022-10-11T22:00:00Z","rooster":[]},{"datum":"2022-10-12T22:00:00Z","rooster":[]},{"datum":"2022-10-13T22:00:00Z","rooster":[]},{"datum":"2022-10-14T22:00:00Z","rooster":[]},{"datum":"2022-10-15T22:00:00Z","rooster":[]}]}],"hasMore":true,"limit":5,"offset":0,"count":6}